[
  {
    "Account": "ThienDM5",
    "Name": "Dinh Minh Thien",
    "CourseCode": "HCM22_FR_NET06",
    "CourseName": "Lop Fresher DotNet 05",
    "FromDate": "05/01/2022",
    "ToDate": "05/31/2022",
    "Status": "3",
    "FinalGrade": "80%",
    "CompletionLevel": "2",
    "CreationDate": "05/31/2022",
    "IsDeleted": "false",
    "IsMonthly": "true"
  },
  {
    "Account": "LinhLB1",
    "Name": "Lam Bao Linh",
    "CourseCode": "HCM22_FR_NET06",
    "CourseName": "Lop Fresher DotNet 05",
    "FromDate": "05/01/2022",
    "ToDate": "05/31/2022",
    "Status": "3",
    "FinalGrade": "80%",
    "CompletionLevel": "2",
    "CreationDate": "05/31/2022",
    "IsDeleted": "false",
    "IsMonthly": "true"
  },
  {
    "Account": "ThienDM5",
    "Name": "Dinh Minh Thien",
    "CourseCode": "HCM22_FR_NET06",
    "CourseName": "Lop Fresher DotNet 05",
    "FromDate": "06/01/2022",
    "ToDate": "06/30/2022",
    "Status": "3",
    "FinalGrade": "80%",
    "CompletionLevel": "2",
    "CreationDate": "05/31/2022",
    "IsDeleted": "false",
    "IsMonthly": "true"
  },
  {
    "Account": "ThienDM5",
    "Name": "Dinh Minh Thien",
    "CourseCode": "HCM22_FR_NET06",
    "CourseName": "Lop Fresher DotNet 05",
    "FromDate": "05/01/2022",
    "ToDate": "05/31/2022",
    "Status": "3",
    "FinalGrade": "80%",
    "CompletionLevel": "2",
    "CreationDate": "05/31/2022",
    "IsDeleted": "false",
    "IsMonthly": "false"
  },
  {
    "Account": "LinhLB1",
    "Name": "Lam Bao Linh",
    "CourseCode": "HCM22_FR_NET_05",
    "CourseName": "Lop Fresher DotNet 05",
    "FromDate": "05/01/2022",
    "ToDate": "05/31/2022",
    "Status": "3",
    "FinalGrade": "80%",
    "CompletionLevel": "2",
    "CreationDate": "05/31/2022",
    "IsDeleted": "false",
    "IsMonthly": "false"
  },
  {
    "Account": "ThienDM5",
    "Name": "Nguyen Van A",
    "CourseCode": "HCM22_FR_NET_10",
    "CourseName": "Lop Fresher DotNet 10",
    "FromDate": "06/01/2022",
    "ToDate": "06/30/2022",
    "Status": "3",
    "FinalGrade": "80%",
    "CompletionLevel": "2",
    "CreationDate": "05/31/2022",
    "IsDeleted": "false",
    "IsMonthly": "false"
  }
]
