[
  {
    "Id": "660c5460-eb9f-4f9f-b5c6-caa6c1f1d4ff",
    "ClassCode": "HCM22_FR_NET_02",
    "AccountName": "bangnt9",
    "ContactType": "phone",
    "DOB": "1999-01-01",
    "FirstName": "bang",
    "LastName": "nguyen",
    "Email": "bangnbt9@gmail.com.vn",
    "English": 500,
    "Graduation": 2,
    "Major": "IT",
    "Phone": "0234235345",
    "OnBoard": "2022/01/01",
    "GPA": 2.4,
    "Salary": 5500000,
    "RECer": "ThamCER",
    "Skill": 2,
    "RRCode": "FSO.HCM.FHO.FA.G0.SG_2022.57_1",
    "Status": 1,
    "University": "UTE",
    "ClassFresherId": "bf09eabc-f4bd-450a-977d-6157a64fb25e"
  },
  {
    "Id": "9a93a164-96db-414b-9e4f-ba5132bcfe63",
    "ClassCode": "HCM22_FR_NET_02",
    "AccountName": "manvm",
    "ContactType": "phone",
    "DOB": "1999-01-12",
    "FirstName": "bang",
    "LastName": " nguyen",
    "Email": "bangnbt9@gamil.com.vn",
    "English": 500,
    "Graduation": 2,
    "Major": "IT",
    "Phone": "0234235345",
    "OnBoard": "2022/04/26",
    "GPA": 2.4,
    "Salary": 5500000,
    "RECer": "ThamCER",
    "Skill": 1,
    "RRCode": "FSO.HCM.FHO.FA.G0.SG_2022.57_1",
    "Status": 2,
    "University": "UTE",
    "ClassFresherId": "bf09eabc-f4bd-450a-977d-6157a64fb25e"
  },
  {
    "Id": "29660adf-5e68-4245-bee0-f89265dab521",
    "ClassCode": "HCM22_FR_NET_02",
    "AccountName": "vitt",
    "ContactType": "phone",
    "DOB": "1999-01-12",
    "FirstName": "vi",
    "LastName": " nguyen",
    "Email": "bangnbt9@gamil.com.vn",
    "English": 500,
    "Graduation": 2,
    "Major": "IT",
    "Phone": "0234235345",
    "OnBoard": "2022/04/26",
    "GPA": 2.4,
    "Salary": 5500000,
    "RECer": "ThamCER",
    "Skill": 1,
    "RRCode": "FSO.HCM.FHO.FA.G0.SG_2022.57_1",
    "Status": 2,
    "University": "UTE",
    "ClassFresherId": "bf09eabc-f4bd-450a-977d-6157a64fb25e"
  },
  {
    "Id": "c11b3666-faaf-4d6f-8d74-ba080de35809",
    "ClassCode": "HCM22_FR_NET_02",
    "AccountName": "Datnt",
    "ContactType": "phone",
    "DOB": "1999-01-12",
    "FirstName": "Dat",
    "LastName": " nguyen",
    "Email": "bangnbt9@gamil.com.vn",
    "English": 500,
    "Graduation": 2,
    "Major": "IT",
    "Phone": "0234235345",
    "OnBoard": "2022/04/26",
    "GPA": 2.4,
    "Salary": 5500000,
    "RECer": "ThamCER",
    "Skill": 1,
    "RRCode": "FSO.HCM.FHO.FA.G0.SG_2022.57_1",
    "Status": 2,
    "University": "UTE",
    "ClassFresherId": "bf09eabc-f4bd-450a-977d-6157a64fb25e"
  },
  {
    "Id": "0956d5ca-3c8a-458f-9d39-f8c9cfe238d6",
    "ClassCode": "HCM22_FR_NET_02",
    "AccountName": "Tiepmm",
    "ContactType": "phone",
    "DOB": "1999-01-12",
    "FirstName": "Tiep",
    "LastName": " nguyen",
    "Email": "bangnbt9@gamil.com.vn",
    "English": 500,
    "Graduation": 2,
    "Major": "IT",
    "Phone": "0234235345",
    "OnBoard": "2022/04/26",
    "GPA": 2.4,
    "Salary": 5500000,
    "RECer": "ThamCER",
    "Skill": 1,
    "RRCode": "FSO.HCM.FHO.FA.G0.SG_2022.57_2",
    "Status": 2,
    "University": "UTE",
    "ClassFresherId": "bf09eabc-f4bd-450a-977d-6157a64fb25e"
  }
]
