[
  {
    "Id": "bf09eabc-f4bd-450a-977d-6157a64fb25e",
    "Title": "Question1",
    "Content": "Content Question1",
    "Description": "Description Question1",
    "FeedBackId": "bf09eabc-f4bd-450a-977d-6157a64fb25e",
    "IsDeleted": false
  },
  {
    "Id": "bf09eabc-f4bd-450a-977d-6157a64fb26e",
    "Title": "Question2",
    "Content": "Content Question2",
    "Description": "Description Question2",
    "FeedBackId": "bf09eabc-f4bd-450a-977d-6157a64fb25e",
    "IsDeleted": false
  },
  {
    "Id": "bf09eabc-f4bd-450a-977d-6157a64fb27e",
    "Title": "Question3",
    "Content": "Content Question3",
    "Description": "Description Question3",
    "FeedBackId": "bf09eabc-f4bd-450a-977d-6157a64fb25e",
    "IsDeleted": false
  },
  {
    "Id": "bf09eabc-f4bd-450a-977d-6157a64fb28e",
    "Title": "Question4",
    "Content": "Content Question4",
    "Description": "Description Question4",
    "FeedBackId": "bf09eabc-f4bd-450a-977d-6157a64fb25e",
    "IsDeleted": false
  },
  {
    "Id": "bf09eabc-f4bd-450a-977d-6157a64fb29e",
    "Title": "Question5",
    "Content": "Content Question5",
    "Description": "Description Question5",
    "FeedBackId": "bf09eabc-f4bd-450a-977d-6157a64fb25e",
    "IsDeleted": false
  },
  {
    "Id": "bf09eabc-f4bd-450a-977d-6157a64fb2ae",
    "Title": "Question6",
    "Content": "Content Question6",
    "Description": "Description Question6",
    "FeedBackId": "bf09eabc-f4bd-450a-977d-6157a64fb25e",
    "IsDeleted": false
  },
  {
    "Id": "bf09eabc-f4bd-450a-977d-6157a64fb2be",
    "Title": "Question7",
    "Content": "Content Question7",
    "Description": "Description Question7",
    "FeedBackId": "bf09eabc-f4bd-450a-977d-6157a64fb25e",
    "IsDeleted": false
  }
]